module gitlab.com/beearn/mirror

go 1.19

require (
	github.com/joho/godotenv v1.5.1
	gitlab.com/beearn/datawarehouse v1.0.3
	google.golang.org/grpc v1.59.0
	google.golang.org/protobuf v1.31.0
)

require (
	github.com/golang/protobuf v1.5.3 // indirect
	gitlab.com/beearn/entity v1.0.1 // indirect
	golang.org/x/net v0.14.0 // indirect
	golang.org/x/sys v0.11.0 // indirect
	golang.org/x/text v0.12.0 // indirect
	google.golang.org/genproto/googleapis/rpc v0.0.0-20230822172742-b8732ec3820d // indirect
)
